^C:\USERS\STEWART\DESKTOP\PCLSETUP\PCL\DOC\TUTORIALS\CONTENT\SOURCES\GROUND_BASED_RGBD_PEOPLE_DETECTION\BUILD\CMAKEFILES\3.8.1\COMPILERIDC\CMAKECCOMPILERID.C
C:\WINDOWS\GLOBALIZATION\SORTING\SORTDEFAULT.NLS
C:\PROGRAM FILES (X86)\MICROSOFT VISUAL STUDIO 14.0\VC\BIN\X86_AMD64\1033\CLUI.DLL
C:\WINDOWS\SYSTEM32\TZRES.DLL
