#Command:  
^C:\USERS\STEWART\DESKTOP\PCLSETUP\PCL\DOC\TUTORIALS\CONTENT\SOURCES\GROUND_BASED_RGBD_PEOPLE_DETECTION\BUILD\CMAKEFILES\3.8.1\COMPILERIDC\DEBUG\CMAKECCOMPILERID.OBJ
C:\USERS\STEWART\APPDATA\LOCAL\MICROSOFT\APPLICATIONINSIGHTS\VSTELAIF-312CBD79-9DBB-4C48-A7DA-3CC2A931CB70\F920031CEF3D4E98BAE349FB89034393.TMP
