#Command:  
^C:\USERS\STEWART\DESKTOP\PCLSETUP\PCL\DOC\TUTORIALS\CONTENT\SOURCES\GROUND_BASED_RGBD_PEOPLE_DETECTION\BUILD\CMAKEFILES\3.8.1\COMPILERIDC\DEBUG\CMAKECCOMPILERID.OBJ
C:\WINDOWS\MICROSOFT.NET\FRAMEWORK\V4.0.30319\MSCORRC.DLL
C:\PROGRAMDATA\VSTELEMETRY\DEFAULT\DEFAULT.MANIFEST.JSON
C:\WINDOWS\ASSEMBLY\NATIVEIMAGES_V4.0.30319_32\SYSTEM.CONFIGURATION\1631C9824952206C5F2A808974D73426\SYSTEM.CONFIGURATION.NI.DLL
C:\WINDOWS\ASSEMBLY\NATIVEIMAGES_V4.0.30319_32\SYSTEM.CONFIGURATION\1631C9824952206C5F2A808974D73426\SYSTEM.CONFIGURATION.NI.DLL.AUX
C:\WINDOWS\ASSEMBLY\NATIVEIMAGES_V4.0.30319_32\SYSTEM.XML\042E9DAD0E2D90BC440011ACFA0042F7\SYSTEM.XML.NI.DLL
C:\WINDOWS\ASSEMBLY\NATIVEIMAGES_V4.0.30319_32\SYSTEM.XML\042E9DAD0E2D90BC440011ACFA0042F7\SYSTEM.XML.NI.DLL.AUX
C:\WINDOWS\MICROSOFT.NET\ASSEMBLY\GAC_MSIL\SYSTEM.DATA.SQLXML\V4.0_4.0.0.0__B77A5C561934E089\SYSTEM.DATA.SQLXML.DLL
C:\WINDOWS\MICROSOFT.NET\FRAMEWORK\V4.0.30319\CONFIG\MACHINE.CONFIG
