^C:\USERS\STEWART\DESKTOP\PCLSETUP\PCL\DOC\TUTORIALS\CONTENT\SOURCES\GROUND_BASED_RGBD_PEOPLE_DETECTION\BUILD\GROUND_BASED_RGBD_PEOPLE_DETECTOR.DIR\DEBUG\MAIN_GROUND_BASED_PEOPLE_DETECTION.OBJ
C:\USERS\STEWART\DESKTOP\PCLSETUP\PCL\DOC\TUTORIALS\CONTENT\SOURCES\GROUND_BASED_RGBD_PEOPLE_DETECTION\BUILD\DEBUG\GROUND_BASED_RGBD_PEOPLE_DETECTOR.ILK
C:\USERS\STEWART\DESKTOP\PCLSETUP\PCL\DOC\TUTORIALS\CONTENT\SOURCES\GROUND_BASED_RGBD_PEOPLE_DETECTION\BUILD\DEBUG\GROUND_BASED_RGBD_PEOPLE_DETECTOR.EXE
C:\USERS\STEWART\DESKTOP\PCLSETUP\PCL\DOC\TUTORIALS\CONTENT\SOURCES\GROUND_BASED_RGBD_PEOPLE_DETECTION\BUILD\DEBUG\GROUND_BASED_RGBD_PEOPLE_DETECTOR.PDB
